useR
…
但是我们也需要注意到, tidy R中多数功能是对base R的封装, 也就意味着base R中同样能实现. 由于tidy R的框架性, tidy R在一系列任务中如鱼得水的同时, 没能覆盖到另一些任务上, 比如在tidy R框架下对一个数据框中, 计算每一行中所有数值相加的结果. tidy R中并非不能进行, 但是效率与丑陋的实现可能都令人难以接受. 这就要求我们同时也要对tidy R是如何封装base R的有所了解.

tidy_rowSums = function(df, name, con = where(is.numeric)) {
  
    con = enquo(con)
    df[[name]] = rowSums(select(df, !!con))
    
    return(df)
    
}

iris |> 
  tidy_rowSums('sum') |> 
  as_tibble()
## # A tibble: 150 × 6
##    Sepal.Length Sepal.Width Petal.Length Petal.Width Species   sum
##           <dbl>       <dbl>        <dbl>       <dbl> <fct>   <dbl>
##  1          5.1         3.5          1.4         0.2 setosa   10.2
##  2          4.9         3            1.4         0.2 setosa    9.5
##  3          4.7         3.2          1.3         0.2 setosa    9.4
##  4          4.6         3.1          1.5         0.2 setosa    9.4
##  5          5           3.6          1.4         0.2 setosa   10.2
##  6          5.4         3.9          1.7         0.4 setosa   11.4
##  7          4.6         3.4          1.4         0.3 setosa    9.7
##  8          5           3.4          1.5         0.2 setosa   10.1
##  9          4.4         2.9          1.4         0.2 setosa    8.9
## 10          4.9         3.1          1.5         0.1 setosa    9.6
## # ℹ 140 more rows
…
在实际工作里, 我们可能要处理一些基因表达数据. 于是我们打开了UCSC Xena, 下载了别人的预制数据. 我们惊喜的发现第一列是一列数字, 这是基因的ENTREZ ID而不是我们熟悉的Symbol. 我们需要将其转换为熟悉的Symbol.

所幸我们还有一个map数据, 其内包含了ENTREZ ID与Symbol的对应关系.

df_expr = read_tsv('examples/expr.tsv') |> 
  mutate(sample = as.character(sample))
df_expr
## # A tibble: 22,583 × 4
##    sample `TCGA-FV-A495-01` `TCGA-G3-A3CH-11` `TCGA-CC-A3MB-01`
##    <chr>              <dbl>             <dbl>             <dbl>
##  1 55160              11.2              11.0              11.2 
##  2 64344               5.25              5.38              4.00
##  3 56163               4.20              0                 0   
##  4 9921               11.5              11.7              12.1 
##  5 26994               9.60             11.4               9.82
##  6 11342               9.63             10.8              10.6 
##  7 2970               11.8              11.5              12.1 
##  8 28954               5.68              3.54              3.56
##  9 246754              0                 1.47              0   
## 10 349667              8.75              7.91              7.98
## # ℹ 22,573 more rows

df_map = read_tsv('examples/probemap.tsv') |> 
  mutate(ENTREZID = as.character(ENTREZID))
df_map
## # A tibble: 17,330 × 2
##    SYMBOL    ENTREZID
##    <chr>     <chr>   
##  1 ARHGEF10L 55160   
##  2 HIF3A     64344   
##  3 RNF17     56163   
##  4 RNF10     9921    
##  5 RNF11     26994   
##  6 RNF13     11342   
##  7 GTF2IP1   2970    
##  8 REM1      28954   
##  9 MTVR2     246754  
## 10 RTN4RL2   349667  
## # ℹ 17,320 more rows

如我们熟悉的那样, 转录组数据一般以基因作为行名, 样本作为列名, 这继承自过去转录组对照试验样本量较小的特点. 然而在这里, 我们将只是用最简单, 最基础的思路, 以’数据框’的形式处理经典的转录组分析任务.

如果你已经读过了前言中提及的书目, 你可能会有以下两种方案:

连接表;

full_join(df_map, df_expr, c('ENTREZID' = 'sample'))
## # A tibble: 22,586 × 5
##    SYMBOL    ENTREZID `TCGA-FV-A495-01` `TCGA-G3-A3CH-11` `TCGA-CC-A3MB-01`
##    <chr>     <chr>                <dbl>             <dbl>             <dbl>
##  1 ARHGEF10L 55160                11.2              11.0              11.2 
##  2 HIF3A     64344                 5.25              5.38              4.00
##  3 RNF17     56163                 4.20              0                 0   
##  4 RNF10     9921                 11.5              11.7              12.1 
##  5 RNF11     26994                 9.60             11.4               9.82
##  6 RNF11     26994                 9.60             11.4               9.82
##  7 RNF13     11342                 9.63             10.8              10.6 
##  8 GTF2IP1   2970                 11.8              11.5              12.1 
##  9 REM1      28954                 5.68              3.54              3.56
## 10 MTVR2     246754                0                 1.47              0   
## # ℹ 22,576 more rows

字典;

table_entrez2symbol = df_map |> pull(SYMBOL, ENTREZID)
table_entrez2symbol[1:3]
##       55160       64344       56163 
## "ARHGEF10L"     "HIF3A"     "RNF17"

df_maped = df_expr |> 
  mutate(sample = table_entrez2symbol[sample])

df_maped
## # A tibble: 22,583 × 4
##    sample    `TCGA-FV-A495-01` `TCGA-G3-A3CH-11` `TCGA-CC-A3MB-01`
##    <chr>                 <dbl>             <dbl>             <dbl>
##  1 ARHGEF10L             11.2              11.0              11.2 
##  2 HIF3A                  5.25              5.38              4.00
##  3 RNF17                  4.20              0                 0   
##  4 RNF10                 11.5              11.7              12.1 
##  5 RNF11                  9.60             11.4               9.82
##  6 RNF13                  9.63             10.8              10.6 
##  7 GTF2IP1               11.8              11.5              12.1 
##  8 REM1                   5.68              3.54              3.56
##  9 MTVR2                  0                 1.47              0   
## 10 RTN4RL2                8.75              7.91              7.98
## # ℹ 22,573 more rows
…
